^C:\USERS\ANDY\DOCUMENTS\GITHUB\TEMACNA\TEMA2\GENERATED\GENERATED\DEBUG\DATAREPLY.GRPC.PB.OBJ|C:\USERS\ANDY\DOCUMENTS\GITHUB\TEMACNA\TEMA2\GENERATED\GENERATED\DEBUG\DATAREPLY.PB.OBJ|C:\USERS\ANDY\DOCUMENTS\GITHUB\TEMACNA\TEMA2\GENERATED\GENERATED\DEBUG\DATAREQUEST.GRPC.PB.OBJ|C:\USERS\ANDY\DOCUMENTS\GITHUB\TEMACNA\TEMA2\GENERATED\GENERATED\DEBUG\DATAREQUEST.PB.OBJ|C:\USERS\ANDY\DOCUMENTS\GITHUB\TEMACNA\TEMA2\GENERATED\GENERATED\DEBUG\DATASERVICE.GRPC.PB.OBJ|C:\USERS\ANDY\DOCUMENTS\GITHUB\TEMACNA\TEMA2\GENERATED\GENERATED\DEBUG\DATASERVICE.PB.OBJ
/OUT:"C:\USERS\ANDY\DOCUMENTS\GITHUB\TEMACNA\TEMA2\GENERATED\DEBUG\GENERATED.LIB" LIBPROTOBUFD.LIB GRPC.LIB /LIBPATH:"C:\USERS\ANDY\DOCUMENTS\GITHUB\TEMACNA\TEMA2\GENERATED\X86-WINDOWS\DEBUG\LIB" /NOLOGO /MACHINE:X86 DEBUG\DATAREPLY.GRPC.PB.OBJ
DEBUG\DATAREPLY.PB.OBJ
DEBUG\DATAREQUEST.GRPC.PB.OBJ
DEBUG\DATAREQUEST.PB.OBJ
DEBUG\DATASERVICE.GRPC.PB.OBJ
DEBUG\DATASERVICE.PB.OBJ
