^C:\USERS\ANDY\DOCUMENTS\GITHUB\TEMACNA\TEMA2\GENERATED\CLIENT\CLIENT.CPP
C:\USERS\ANDY\DOCUMENTS\GITHUB\TEMACNA\TEMA2\GENERATED\CLIENT\DEBUG\VC142.PDB
C:\USERS\ANDY\DOCUMENTS\GITHUB\TEMACNA\TEMA2\GENERATED\CLIENT\DEBUG\VC142.IDB
C:\USERS\ANDY\DOCUMENTS\GITHUB\TEMACNA\TEMA2\GENERATED\CLIENT\DEBUG\CLIENT.OBJ
