^C:\USERS\ANDY\DOCUMENTS\GITHUB\TEMACNA\TEMA2\GENERATED\CLIENT\DEBUG\CLIENT.OBJ|C:\USERS\ANDY\DOCUMENTS\GITHUB\TEMACNA\TEMA2\GENERATED\DEBUG\GENERATED.LIB
/OUT:"C:\USERS\ANDY\DOCUMENTS\GITHUB\TEMACNA\TEMA2\GENERATED\DEBUG\CLIENT.EXE" /INCREMENTAL /NOLOGO /LIBPATH:"C:\USERS\ANDY\DOCUMENTS\GITHUB\TEMACNA\TEMA2\GENERATED\X86-WINDOWS\DEBUG\LIB" /LIBPATH:"D:\VCPKG\VCPKG-MASTER\VCPKG-MASTER\INSTALLED\X86-WINDOWS\DEBUG\LIB" /LIBPATH:"D:\VCPKG\VCPKG-MASTER\VCPKG-MASTER\INSTALLED\X86-WINDOWS\DEBUG\LIB\MANUAL-LINK" ABSL_BASE.LIB ABSL_STRINGS.LIB ABSL_THROW_DELEGATE.LIB ADDRESS_SORTING.LIB CARES.LIB GPR.LIB GRPC.LIB GRPC++.LIB LIBCRYPTO.LIB LIBPROTOBUFD.LIB LIBSSL.LIB UPB.LIB WS2_32.LIB ZLIBD.LIB KERNEL32.LIB USER32.LIB GDI32.LIB WINSPOOL.LIB COMDLG32.LIB ADVAPI32.LIB SHELL32.LIB OLE32.LIB OLEAUT32.LIB UUID.LIB ODBC32.LIB ODBCCP32.LIB "D:\VCPKG\VCPKG-MASTER\VCPKG-MASTER\INSTALLED\X86-WINDOWS\DEBUG\LIB\*.LIB" /MANIFEST /MANIFESTUAC:"level='asInvoker' uiAccess='false'" /manifest:embed /DEBUG:FASTLINK /PDB:"C:\USERS\ANDY\DOCUMENTS\GITHUB\TEMACNA\TEMA2\GENERATED\DEBUG\CLIENT.PDB" /SUBSYSTEM:CONSOLE /TLBID:1 /DYNAMICBASE /NXCOMPAT /IMPLIB:"C:\USERS\ANDY\DOCUMENTS\GITHUB\TEMACNA\TEMA2\GENERATED\DEBUG\CLIENT.LIB" /MACHINE:X86 DEBUG\CLIENT.OBJ
C:\USERS\ANDY\DOCUMENTS\GITHUB\TEMACNA\TEMA2\GENERATED\DEBUG\GENERATED.LIB
